{
  "project_info": {
    "project_number": "862355977416",
    "firebase_url": "https://oxforddictionary-78c75.firebaseio.com",
    "project_id": "oxforddictionary-78c75",
    "storage_bucket": "oxforddictionary-78c75.appspot.com"
  },
  "client": [
    {
      "client_info": {
        "mobilesdk_app_id": "1:862355977416:android:178d4794e53d6956",
        "android_client_info": {
          "package_name": "com.example.oxforddictionary"
        }
      },
      "oauth_client": [
        {
          "client_id": "862355977416-pnvdjbsqdkrvjb9omph8nr6h0udas0ie.apps.googleusercontent.com",
          "client_type": 1,
          "android_info": {
            "package_name": "com.example.oxforddictionary",
            "certificate_hash": "4eedd0daa5f2eb9771a4cacfc1dfeb1eef176bd3"
          }
        },
        {
          "client_id": "862355977416-50p0p90cjoo8malpphciuv110jmutk67.apps.googleusercontent.com",
          "client_type": 3
        }
      ],
      "api_key": [
        {
          "current_key": "AIzaSyB-r2LkiUguX9EI8Gmwk2g7m5vSg72GfJ8"
        }
      ],
      "services": {
        "appinvite_service": {
          "other_platform_oauth_client": [
            {
              "client_id": "862355977416-50p0p90cjoo8malpphciuv110jmutk67.apps.googleusercontent.com",
              "client_type": 3
            }
          ]
        }
      }
    }
  ],
  "configuration_version": "1"
}